{
  "_embedded": {
    "articles": [
      {
        "createdAt": "2021-05-30T23:53:46",
        "createdBy": "Kamilah",
        "modifiedAt": "2021-03-10T08:48:50",
        "modifiedBy": "Murial",
        "userAccount": {
          "createdAt": "2023-02-14T18:07:25",
          "createdBy": "uno2",
          "modifiedAt": "2023-02-14T18:07:25",
          "modifiedBy": "uno2",
          "userId": "uno2",
          "userPassword": "{noop}asdf1234",
          "email": "uno2@mail.com",
          "nickname": "Uno2",
          "memo": "I am Uno2."
        },
        "title": "Quisque ut erat.",
        "content": "Vestibulum quam sapien, varius ut, blandit non, interdum in, ante. Vestibulum ante ipsum primis in faucibus orci luctus et ultrices posuere cubilia Curae; Duis faucibus accumsan odio. Curabitur convallis.\n\nDuis consequat dui nec nisi volutpat eleifend. Donec ut dolor. Morbi vel lectus in quam fringilla rhoncus.\n\nMauris enim leo, rhoncus sed, vestibulum sit amet, cursus id, turpis. Integer aliquet, massa id lobortis convallis, tortor risus dapibus augue, vel accumsan tellus nisi eu orci. Mauris lacinia sapien quis libero.",
        "hashtag": "#pink",
        "_links": {
          "self": {
            "href": "http://localhost:8080/api/articles/1"
          },
          "article": {
            "href": "http://localhost:8080/api/articles/1"
          },
          "article_Comments": {
            "href": "http://localhost:8080/api/articles/1/article_Comments"
          }
        }
      },
      {
        "createdAt": "2021-05-06T11:51:24",
        "createdBy": "Arv",
        "modifiedAt": "2021-05-23T08:34:54",
        "modifiedBy": "Keelby",
        "userAccount": {
          "createdAt": "2023-02-14T18:07:25",
          "createdBy": "uno2",
          "modifiedAt": "2023-02-14T18:07:25",
          "modifiedBy": "uno2",
          "userId": "uno2",
          "userPassword": "{noop}asdf1234",
          "email": "uno2@mail.com",
          "nickname": "Uno2",
          "memo": "I am Uno2."
        },
        "title": "Morbi ut odio.",
        "content": "Phasellus in felis. Donec semper sapien a libero. Nam dui.\n\nProin leo odio, porttitor id, consequat in, consequat ut, nulla. Sed accumsan felis. Ut at dolor quis odio consequat varius.\n\nInteger ac leo. Pellentesque ultrices mattis odio. Donec vitae nisi.",
        "hashtag": "#purple",
        "_links": {
          "self": {
            "href": "http://localhost:8080/api/articles/2"
          },
          "article": {
            "href": "http://localhost:8080/api/articles/2"
          },
          "article_Comments": {
            "href": "http://localhost:8080/api/articles/2/article_Comments"
          }
        }
      },
      {
        "createdAt": "2021-08-13T08:32:22",
        "createdBy": "Adams",
        "modifiedAt": "2021-04-02T02:58:19",
        "modifiedBy": "Thalia",
        "userAccount": {
          "createdAt": "2023-02-14T18:07:25",
          "createdBy": "uno2",
          "modifiedAt": "2023-02-14T18:07:25",
          "modifiedBy": "uno2",
          "userId": "uno2",
          "userPassword": "{noop}asdf1234",
          "email": "uno2@mail.com",
          "nickname": "Uno2",
          "memo": "I am Uno2."
        },
        "title": "Vestibulum ante ipsum primis in faucibus orci luctus et ultrices posuere cubilia Curae; Duis faucibus accumsan odio.",
        "content": "Etiam vel augue. Vestibulum rutrum rutrum neque. Aenean auctor gravida sem.",
        "hashtag": "#purple",
        "_links": {
          "self": {
            "href": "http://localhost:8080/api/articles/3"
          },
          "article": {
            "href": "http://localhost:8080/api/articles/3"
          },
          "article_Comments": {
            "href": "http://localhost:8080/api/articles/3/article_Comments"
          }
        }
      },
      {
        "createdAt": "2021-09-05T04:28:16",
        "createdBy": "Johny",
        "modifiedAt": "2021-10-31T17:46:08",
        "modifiedBy": "Constantin",
        "userAccount": {
          "createdAt": "2023-02-14T18:07:25",
          "createdBy": "uno",
          "modifiedAt": "2023-02-14T18:07:25",
          "modifiedBy": "uno",
          "userId": "uno",
          "userPassword": "{noop}asdf1234",
          "email": "uno@mail.com",
          "nickname": "Uno",
          "memo": "I am Uno."
        },
        "title": "Fusce posuere felis sed lacus.",
        "content": "Integer ac leo. Pellentesque ultrices mattis odio. Donec vitae nisi.",
        "hashtag": "#mauv",
        "_links": {
          "self": {
            "href": "http://localhost:8080/api/articles/4"
          },
          "article": {
            "href": "http://localhost:8080/api/articles/4"
          },
          "article_Comments": {
            "href": "http://localhost:8080/api/articles/4/article_Comments"
          }
        }
      },
      {
        "createdAt": "2022-01-25T16:10:23",
        "createdBy": "Karlene",
        "modifiedAt": "2021-11-08T08:47:03",
        "modifiedBy": "Marmaduke",
        "userAccount": {
          "createdAt": "2023-02-14T18:07:25",
          "createdBy": "uno",
          "modifiedAt": "2023-02-14T18:07:25",
          "modifiedBy": "uno",
          "userId": "uno",
          "userPassword": "{noop}asdf1234",
          "email": "uno@mail.com",
          "nickname": "Uno",
          "memo": "I am Uno."
        },
        "title": "Aliquam erat volutpat.",
        "content": "Proin interdum mauris non ligula pellentesque ultrices. Phasellus id sapien in sapien iaculis congue. Vivamus metus arcu, adipiscing molestie, hendrerit at, vulputate vitae, nisl.",
        "hashtag": "#green",
        "_links": {
          "self": {
            "href": "http://localhost:8080/api/articles/5"
          },
          "article": {
            "href": "http://localhost:8080/api/articles/5"
          },
          "article_Comments": {
            "href": "http://localhost:8080/api/articles/5/article_Comments"
          }
        }
      },
      {
        "createdAt": "2022-01-26T06:33:42",
        "createdBy": "Alonso",
        "modifiedAt": "2021-12-08T11:27:30",
        "modifiedBy": "Eustacia",
        "userAccount": {
          "createdAt": "2023-02-14T18:07:25",
          "createdBy": "uno",
          "modifiedAt": "2023-02-14T18:07:25",
          "modifiedBy": "uno",
          "userId": "uno",
          "userPassword": "{noop}asdf1234",
          "email": "uno@mail.com",
          "nickname": "Uno",
          "memo": "I am Uno."
        },
        "title": "Donec ut mauris eget massa tempor convallis.",
        "content": "Cras non velit nec nisi vulputate nonummy. Maecenas tincidunt lacus at velit. Vivamus vel nulla eget eros elementum pellentesque.\n\nQuisque porta volutpat erat. Quisque erat eros, viverra eget, congue eget, semper rutrum, nulla. Nunc purus.",
        "hashtag": "#maroon",
        "_links": {
          "self": {
            "href": "http://localhost:8080/api/articles/6"
          },
          "article": {
            "href": "http://localhost:8080/api/articles/6"
          },
          "article_Comments": {
            "href": "http://localhost:8080/api/articles/6/article_Comments"
          }
        }
      },
      {
        "createdAt": "2021-05-04T19:51:29",
        "createdBy": "Dedra",
        "modifiedAt": "2021-10-09T16:52:09",
        "modifiedBy": "Wilek",
        "userAccount": {
          "createdAt": "2023-02-14T18:07:25",
          "createdBy": "uno",
          "modifiedAt": "2023-02-14T18:07:25",
          "modifiedBy": "uno",
          "userId": "uno",
          "userPassword": "{noop}asdf1234",
          "email": "uno@mail.com",
          "nickname": "Uno",
          "memo": "I am Uno."
        },
        "title": "Nullam molestie nibh in lectus.",
        "content": "Proin leo odio, porttitor id, consequat in, consequat ut, nulla. Sed accumsan felis. Ut at dolor quis odio consequat varius.\n\nInteger ac leo. Pellentesque ultrices mattis odio. Donec vitae nisi.",
        "hashtag": "#orange",
        "_links": {
          "self": {
            "href": "http://localhost:8080/api/articles/7"
          },
          "article": {
            "href": "http://localhost:8080/api/articles/7"
          },
          "article_Comments": {
            "href": "http://localhost:8080/api/articles/7/article_Comments"
          }
        }
      },
      {
        "createdAt": "2021-10-23T23:45:21",
        "createdBy": "Doe",
        "modifiedAt": "2021-08-05T14:19:36",
        "modifiedBy": "Jodi",
        "userAccount": {
          "createdAt": "2023-02-14T18:07:25",
          "createdBy": "uno",
          "modifiedAt": "2023-02-14T18:07:25",
          "modifiedBy": "uno",
          "userId": "uno",
          "userPassword": "{noop}asdf1234",
          "email": "uno@mail.com",
          "nickname": "Uno",
          "memo": "I am Uno."
        },
        "title": "Sed ante.",
        "content": "Fusce posuere felis sed lacus. Morbi sem mauris, laoreet ut, rhoncus aliquet, pulvinar sed, nisl. Nunc rhoncus dui vel sem.\n\nSed sagittis. Nam congue, risus semper porta volutpat, quam pede lobortis ligula, sit amet eleifend pede libero quis orci. Nullam molestie nibh in lectus.",
        "hashtag": "#teal",
        "_links": {
          "self": {
            "href": "http://localhost:8080/api/articles/8"
          },
          "article": {
            "href": "http://localhost:8080/api/articles/8"
          },
          "article_Comments": {
            "href": "http://localhost:8080/api/articles/8/article_Comments"
          }
        }
      },
      {
        "createdAt": "2021-01-10T21:03:03",
        "createdBy": "Fitz",
        "modifiedAt": "2021-04-15T05:02:39",
        "modifiedBy": "Jemmie",
        "userAccount": {
          "createdAt": "2023-02-14T18:07:25",
          "createdBy": "uno",
          "modifiedAt": "2023-02-14T18:07:25",
          "modifiedBy": "uno",
          "userId": "uno",
          "userPassword": "{noop}asdf1234",
          "email": "uno@mail.com",
          "nickname": "Uno",
          "memo": "I am Uno."
        },
        "title": "In hac habitasse platea dictumst.",
        "content": "Sed ante. Vivamus tortor. Duis mattis egestas metus.\n\nAenean fermentum. Donec ut mauris eget massa tempor convallis. Nulla neque libero, convallis eget, eleifend luctus, ultricies eu, nibh.",
        "hashtag": "#khaki",
        "_links": {
          "self": {
            "href": "http://localhost:8080/api/articles/9"
          },
          "article": {
            "href": "http://localhost:8080/api/articles/9"
          },
          "article_Comments": {
            "href": "http://localhost:8080/api/articles/9/article_Comments"
          }
        }
      },
      {
        "createdAt": "2021-09-28T07:01:29",
        "createdBy": "Grace",
        "modifiedAt": "2021-09-01T13:54:55",
        "modifiedBy": "Bryn",
        "userAccount": {
          "createdAt": "2023-02-14T18:07:25",
          "createdBy": "uno",
          "modifiedAt": "2023-02-14T18:07:25",
          "modifiedBy": "uno",
          "userId": "uno",
          "userPassword": "{noop}asdf1234",
          "email": "uno@mail.com",
          "nickname": "Uno",
          "memo": "I am Uno."
        },
        "title": "Vivamus in felis eu sapien cursus vestibulum.",
        "content": "Nulla ut erat id mauris vulputate elementum. Nullam varius. Nulla facilisi.\n\nCras non velit nec nisi vulputate nonummy. Maecenas tincidunt lacus at velit. Vivamus vel nulla eget eros elementum pellentesque.\n\nQuisque porta volutpat erat. Quisque erat eros, viverra eget, congue eget, semper rutrum, nulla. Nunc purus.",
        "hashtag": "#puce",
        "_links": {
          "self": {
            "href": "http://localhost:8080/api/articles/10"
          },
          "article": {
            "href": "http://localhost:8080/api/articles/10"
          },
          "article_Comments": {
            "href": "http://localhost:8080/api/articles/10/article_Comments"
          }
        }
      },
      {
        "createdAt": "2022-01-26T03:40:15",
        "createdBy": "Lalo",
        "modifiedAt": "2021-07-18T05:30:34",
        "modifiedBy": "Lorrie",
        "userAccount": {
          "createdAt": "2023-02-14T18:07:25",
          "createdBy": "uno",
          "modifiedAt": "2023-02-14T18:07:25",
          "modifiedBy": "uno",
          "userId": "uno",
          "userPassword": "{noop}asdf1234",
          "email": "uno@mail.com",
          "nickname": "Uno",
          "memo": "I am Uno."
        },
        "title": "Morbi a ipsum.",
        "content": "Mauris enim leo, rhoncus sed, vestibulum sit amet, cursus id, turpis. Integer aliquet, massa id lobortis convallis, tortor risus dapibus augue, vel accumsan tellus nisi eu orci. Mauris lacinia sapien quis libero.",
        "hashtag": "#orange",
        "_links": {
          "self": {
            "href": "http://localhost:8080/api/articles/11"
          },
          "article": {
            "href": "http://localhost:8080/api/articles/11"
          },
          "article_Comments": {
            "href": "http://localhost:8080/api/articles/11/article_Comments"
          }
        }
      },
      {
        "createdAt": "2021-07-22T22:25:07",
        "createdBy": "Jane",
        "modifiedAt": "2021-05-16T14:20:27",
        "modifiedBy": "Tresa",
        "userAccount": {
          "createdAt": "2023-02-14T18:07:25",
          "createdBy": "uno",
          "modifiedAt": "2023-02-14T18:07:25",
          "modifiedBy": "uno",
          "userId": "uno",
          "userPassword": "{noop}asdf1234",
          "email": "uno@mail.com",
          "nickname": "Uno",
          "memo": "I am Uno."
        },
        "title": "Cum sociis natoque penatibus et magnis dis parturient montes, nascetur ridiculus mus.",
        "content": "Sed ante. Vivamus tortor. Duis mattis egestas metus.\n\nAenean fermentum. Donec ut mauris eget massa tempor convallis. Nulla neque libero, convallis eget, eleifend luctus, ultricies eu, nibh.",
        "hashtag": "#purple",
        "_links": {
          "self": {
            "href": "http://localhost:8080/api/articles/12"
          },
          "article": {
            "href": "http://localhost:8080/api/articles/12"
          },
          "article_Comments": {
            "href": "http://localhost:8080/api/articles/12/article_Comments"
          }
        }
      },
      {
        "createdAt": "2021-02-20T10:06:13",
        "createdBy": "Cookie",
        "modifiedAt": "2021-10-10T06:05:30",
        "modifiedBy": "Rosalia",
        "userAccount": {
          "createdAt": "2023-02-14T18:07:25",
          "createdBy": "uno",
          "modifiedAt": "2023-02-14T18:07:25",
          "modifiedBy": "uno",
          "userId": "uno",
          "userPassword": "{noop}asdf1234",
          "email": "uno@mail.com",
          "nickname": "Uno",
          "memo": "I am Uno."
        },
        "title": "Duis at velit eu est congue elementum.",
        "content": "Curabitur in libero ut massa volutpat convallis. Morbi odio odio, elementum eu, interdum eu, tincidunt in, leo. Maecenas pulvinar lobortis est.",
        "hashtag": "#maroon",
        "_links": {
          "self": {
            "href": "http://localhost:8080/api/articles/13"
          },
          "article": {
            "href": "http://localhost:8080/api/articles/13"
          },
          "article_Comments": {
            "href": "http://localhost:8080/api/articles/13/article_Comments"
          }
        }
      },
      {
        "createdAt": "2021-08-17T15:14:51",
        "createdBy": "Gerti",
        "modifiedAt": "2021-10-01T13:01:41",
        "modifiedBy": "Everard",
        "userAccount": {
          "createdAt": "2023-02-14T18:07:25",
          "createdBy": "uno",
          "modifiedAt": "2023-02-14T18:07:25",
          "modifiedBy": "uno",
          "userId": "uno",
          "userPassword": "{noop}asdf1234",
          "email": "uno@mail.com",
          "nickname": "Uno",
          "memo": "I am Uno."
        },
        "title": "In hac habitasse platea dictumst.",
        "content": "In hac habitasse platea dictumst. Morbi vestibulum, velit id pretium iaculis, diam erat fermentum justo, nec condimentum neque sapien placerat ante. Nulla justo.\n\nAliquam quis turpis eget elit sodales scelerisque. Mauris sit amet eros. Suspendisse accumsan tortor quis turpis.",
        "hashtag": null,
        "_links": {
          "self": {
            "href": "http://localhost:8080/api/articles/14"
          },
          "article": {
            "href": "http://localhost:8080/api/articles/14"
          },
          "article_Comments": {
            "href": "http://localhost:8080/api/articles/14/article_Comments"
          }
        }
      },
      {
        "createdAt": "2021-12-03T03:44:00",
        "createdBy": "Adolf",
        "modifiedAt": "2021-07-12T00:20:12",
        "modifiedBy": "Tiff",
        "userAccount": {
          "createdAt": "2023-02-14T18:07:25",
          "createdBy": "uno",
          "modifiedAt": "2023-02-14T18:07:25",
          "modifiedBy": "uno",
          "userId": "uno",
          "userPassword": "{noop}asdf1234",
          "email": "uno@mail.com",
          "nickname": "Uno",
          "memo": "I am Uno."
        },
        "title": "Nulla suscipit ligula in lacus.",
        "content": "Sed sagittis. Nam congue, risus semper porta volutpat, quam pede lobortis ligula, sit amet eleifend pede libero quis orci. Nullam molestie nibh in lectus.\n\nPellentesque at nulla. Suspendisse potenti. Cras in purus eu magna vulputate luctus.\n\nCum sociis natoque penatibus et magnis dis parturient montes, nascetur ridiculus mus. Vivamus vestibulum sagittis sapien. Cum sociis natoque penatibus et magnis dis parturient montes, nascetur ridiculus mus.",
        "hashtag": "#khaki",
        "_links": {
          "self": {
            "href": "http://localhost:8080/api/articles/15"
          },
          "article": {
            "href": "http://localhost:8080/api/articles/15"
          },
          "article_Comments": {
            "href": "http://localhost:8080/api/articles/15/article_Comments"
          }
        }
      },
      {
        "createdAt": "2021-08-11T04:04:05",
        "createdBy": "Vivyanne",
        "modifiedAt": "2021-09-05T17:15:51",
        "modifiedBy": "Humbert",
        "userAccount": {
          "createdAt": "2023-02-14T18:07:25",
          "createdBy": "uno",
          "modifiedAt": "2023-02-14T18:07:25",
          "modifiedBy": "uno",
          "userId": "uno",
          "userPassword": "{noop}asdf1234",
          "email": "uno@mail.com",
          "nickname": "Uno",
          "memo": "I am Uno."
        },
        "title": "Cum sociis natoque penatibus et magnis dis parturient montes, nascetur ridiculus mus.",
        "content": "Proin interdum mauris non ligula pellentesque ultrices. Phasellus id sapien in sapien iaculis congue. Vivamus metus arcu, adipiscing molestie, hendrerit at, vulputate vitae, nisl.\n\nAenean lectus. Pellentesque eget nunc. Donec quis orci eget orci vehicula condimentum.",
        "hashtag": null,
        "_links": {
          "self": {
            "href": "http://localhost:8080/api/articles/16"
          },
          "article": {
            "href": "http://localhost:8080/api/articles/16"
          },
          "article_Comments": {
            "href": "http://localhost:8080/api/articles/16/article_Comments"
          }
        }
      },
      {
        "createdAt": "2021-12-21T13:27:54",
        "createdBy": "Ki",
        "modifiedAt": "2021-05-07T08:06:52",
        "modifiedBy": "Ophelia",
        "userAccount": {
          "createdAt": "2023-02-14T18:07:25",
          "createdBy": "uno",
          "modifiedAt": "2023-02-14T18:07:25",
          "modifiedBy": "uno",
          "userId": "uno",
          "userPassword": "{noop}asdf1234",
          "email": "uno@mail.com",
          "nickname": "Uno",
          "memo": "I am Uno."
        },
        "title": "Donec semper sapien a libero.",
        "content": "Donec diam neque, vestibulum eget, vulputate ut, ultrices vel, augue. Vestibulum ante ipsum primis in faucibus orci luctus et ultrices posuere cubilia Curae; Donec pharetra, magna vestibulum aliquet ultrices, erat tortor sollicitudin mi, sit amet lobortis sapien sapien non mi. Integer ac neque.",
        "hashtag": null,
        "_links": {
          "self": {
            "href": "http://localhost:8080/api/articles/17"
          },
          "article": {
            "href": "http://localhost:8080/api/articles/17"
          },
          "article_Comments": {
            "href": "http://localhost:8080/api/articles/17/article_Comments"
          }
        }
      },
      {
        "createdAt": "2021-06-29T13:00:35",
        "createdBy": "Jackelyn",
        "modifiedAt": "2021-05-11T00:47:43",
        "modifiedBy": "Vlad",
        "userAccount": {
          "createdAt": "2023-02-14T18:07:25",
          "createdBy": "uno",
          "modifiedAt": "2023-02-14T18:07:25",
          "modifiedBy": "uno",
          "userId": "uno",
          "userPassword": "{noop}asdf1234",
          "email": "uno@mail.com",
          "nickname": "Uno",
          "memo": "I am Uno."
        },
        "title": "Quisque id justo sit amet sapien dignissim vestibulum.",
        "content": "Cum sociis natoque penatibus et magnis dis parturient montes, nascetur ridiculus mus. Vivamus vestibulum sagittis sapien. Cum sociis natoque penatibus et magnis dis parturient montes, nascetur ridiculus mus.\n\nEtiam vel augue. Vestibulum rutrum rutrum neque. Aenean auctor gravida sem.",
        "hashtag": "#goldenrod",
        "_links": {
          "self": {
            "href": "http://localhost:8080/api/articles/18"
          },
          "article": {
            "href": "http://localhost:8080/api/articles/18"
          },
          "article_Comments": {
            "href": "http://localhost:8080/api/articles/18/article_Comments"
          }
        }
      },
      {
        "createdAt": "2021-06-18T20:56:37",
        "createdBy": "Jesus",
        "modifiedAt": "2021-07-05T18:44:15",
        "modifiedBy": "Peri",
        "userAccount": {
          "createdAt": "2023-02-14T18:07:25",
          "createdBy": "uno",
          "modifiedAt": "2023-02-14T18:07:25",
          "modifiedBy": "uno",
          "userId": "uno",
          "userPassword": "{noop}asdf1234",
          "email": "uno@mail.com",
          "nickname": "Uno",
          "memo": "I am Uno."
        },
        "title": "Morbi quis tortor id nulla ultrices aliquet.",
        "content": "Nullam sit amet turpis elementum ligula vehicula consequat. Morbi a ipsum. Integer a nibh.",
        "hashtag": "#yellow",
        "_links": {
          "self": {
            "href": "http://localhost:8080/api/articles/19"
          },
          "article": {
            "href": "http://localhost:8080/api/articles/19"
          },
          "article_Comments": {
            "href": "http://localhost:8080/api/articles/19/article_Comments"
          }
        }
      },
      {
        "createdAt": "2021-06-16T12:20:50",
        "createdBy": "Abbot",
        "modifiedAt": "2021-01-26T02:34:46",
        "modifiedBy": "Carolann",
        "userAccount": {
          "createdAt": "2023-02-14T18:07:25",
          "createdBy": "uno",
          "modifiedAt": "2023-02-14T18:07:25",
          "modifiedBy": "uno",
          "userId": "uno",
          "userPassword": "{noop}asdf1234",
          "email": "uno@mail.com",
          "nickname": "Uno",
          "memo": "I am Uno."
        },
        "title": "In sagittis dui vel nisl.",
        "content": "Aenean fermentum. Donec ut mauris eget massa tempor convallis. Nulla neque libero, convallis eget, eleifend luctus, ultricies eu, nibh.\n\nQuisque id justo sit amet sapien dignissim vestibulum. Vestibulum ante ipsum primis in faucibus orci luctus et ultrices posuere cubilia Curae; Nulla dapibus dolor vel est. Donec odio justo, sollicitudin ut, suscipit a, feugiat et, eros.",
        "hashtag": "#orange",
        "_links": {
          "self": {
            "href": "http://localhost:8080/api/articles/20"
          },
          "article": {
            "href": "http://localhost:8080/api/articles/20"
          },
          "article_Comments": {
            "href": "http://localhost:8080/api/articles/20/article_Comments"
          }
        }
      }
    ]
  },
  "_links": {
    "first": {
      "href": "http://localhost:8080/api/articles?page=0&size=20"
    },
    "self": {
      "href": "http://localhost:8080/api/articles"
    },
    "next": {
      "href": "http://localhost:8080/api/articles?page=1&size=20"
    },
    "last": {
      "href": "http://localhost:8080/api/articles?page=6&size=20"
    },
    "profile": {
      "href": "http://localhost:8080/api/profile/articles"
    },
    "search": {
      "href": "http://localhost:8080/api/articles/search"
    }
  },
  "page": {
    "size": 20,
    "totalElements": 123,
    "totalPages": 7,
    "number": 0
  }
}
